{
  "version":10,
  "product":"default",
  "ram": 4,
  "up_time": 20231030,
  "smart_clean":[
    "com.facebook.katana",
    "com.facebook.lite",
    "com.facebook.orca",
    "com.whatsapp",
    "com.whatsapp.w4b",
    "com.instagram.android",
    "jp.naver.line.android",
    "com.tencent.mobileqqi",
    "com.tencent.mobileqq",
    "com.tencent.mm",
    "com.tencent.wework",
    "com.mediatek.MemEater",
    "cpu.cpueater.one",
    "com.debug.loggerui",
    "com.transsion.phonemaster",
    "com.android.vending",
    "com.sh.smart.caller",
    "com.jio.join",
    "com.imo.android.imoim",
    "org.telegram.messenger",
    "com.viber.voip",
    "com.truecaller",
    "com.skype.raider",
    "com.oraimo.appjoywear",
    "im.thebot.messenger",
    "com.scorpio.securitycom",
    "com.vkontakte.android",
    "com.transsnet.news.more.ngblog",
    "com.transsnet.news.more.gh",
    "com.transsnet.news.more.ke",
    "org.thoughtcrime.securesms",
    "com.transsion.demomode",
    "com.transsion.smartmessage",
    "com.payjoy.access",
    "com.payjoy.status"
  ],
  "auto_start":[
    "com.facebook.katana",
    "com.facebook.lite",
    "com.facebook.orca",
    "com.whatsapp",
    "com.whatsapp.w4b",
    "com.instagram.android",
    "jp.naver.line.android",
    "com.tencent.mobileqqi",
    "com.tencent.mobileqq",
    "com.tencent.mm",
    "com.tencent.wework",
    "com.jio.join",
    "com.imo.android.imoim",
    "org.telegram.messenger",
    "com.viber.voip",
    "com.truecaller",
    "com.skype.raider",
    "com.oraimo.appjoywear",
    "im.thebot.messenger",
    "com.hatsune.eagleee",
    "com.scorpio.securitycom",
    "com.lbe.parallel.intl",
    "com.parallel.space.lite",
    "com.vkontakte.android",
    "com.transsnet.news.more.ngblog",
    "com.transsnet.news.more.gh",
    "com.transsnet.news.more.ke",
    "org.thoughtcrime.securesms",
    "com.transsion.demomode",
    "com.snapchat.android",
    "com.instagram.lite"
  ]
}
