[
  {
    "key": "charge_vibrate",
    "type": "ab",
    "auto_test": true,
    "config": {
      "enable_electric": false,
      "enable_charge_light": true,
      "enable_vibrate": true
    },
    "index_a": 0,
    "index_b": 0
  },
  {
    "key": "fingerprint",
    "type": "ab",
    "auto_test": true,
    "index_a": 1,
    "index_b": 1,
    "config":{
        "result_success_code_focal_tee":-1,
        "result_success_code_cd_tee":0,
        "result_success_code_silead_tee":0
    }
  },
  {
    "key": "mic",
    "type": "a",
    "config": {
        "double_speaker": true
    },
    "index_a": 2
  },
  {
    "key": "headset",
    "type": "a",
    "index_a": 3
  },
  {
    "key": "fm",
    "type": "a",
    "auto_test": true,
    "index_a": 4
  },
  {
    "key": "lcd",
    "type": "abm",
    "index_a": 5,
    "index_b": 2,
    "index_m": 4
  },
  {
    "key": "speaker",
    "type": "a",
    "config": {
        "double_speaker": true
    },
    "index_a": 6
  },
  {
    "key": "base_info",
    "type": "b",
    "only_show": true,
    "config": {
      "google_key": "doujia",
      "tee_type": "doujia"
    },
    "index_b": 3
  },
  {
    "key": "psensor_calibration",
    "type": "ab",
    "auto_test": true,
    "index_a": 7,
    "index_b": 4
  },
  {
    "key": "psensor_test",
    "type": "ab",
    "auto_test": true,
    "index_a": 8,
    "index_b": 5
  },
  {
    "key": "receiver_vibrate",
    "type": "a",
    "index_a": 9
  },
  {
    "key": "back_camera2",
    "type": "abm",
    "index_a": 10,
    "index_b": 6,
    "index_m": 0
  },
  {
    "key": "front_camera2",
    "type": "abm",
    "index_a": 11,
    "index_b": 7,
    "index_m": 1
  },
  {
    "key": "flash",
    "type": "abm",
    "auto_test": true,
    "config": {
      "back_flash_path": "/sys/devices/virtual/torch/torch/torch_level",
      "front_flash_path": "/sys/class/sub_torch/sub_torch/sub_torch_level",
      "back_on": "11",
      "back_off": "0",
      "front_on": "11",
      "front_off": "0"
    },
    "index_a": 12,
    "index_b": 8,
    "index_m": 2
  },
  {
    "key": "search",
    "type": "ab",
    "auto_test": true,
    "index_a": 13,
    "index_b": 9
  },
  {
    "key": "lsensor_calibration",
    "type": "ab",
    "auto_test": true,
    "index_a": 14,
    "index_b": 10
  },
  {
    "key": "lsensor_test",
    "type": "ab",
    "auto_test": true,
    "index_a": 15,
    "index_b": 11
  },
  {
    "key": "gsensor_calibration",
    "type": "ab",
    "auto_test": true,
    "index_a": 16,
    "index_b": 12
  },
  {
    "key": "sensor",
    "type": "ab",
    "auto_test": true,
    "config": {
      "have_nfc": true,
      "have_tp_face": false,
      "have_gsensor": true,
      "have_psensor": false,
      "have_lsensor": false,
      "tp_version_check": true,
      "change_gsensor_mode": false
    },
    "index_a": 17,
    "index_b": 13
  },
  {
    "key": "sensor",
    "type": ""
  },
  {
    "key": "compass",
    "type": "abm",
    "index_a": 18,
    "index_b": 14,
    "index_m": 5
  },
  {
    "key": "tp_touch",
    "type": "abm",
    "index_a": 19,
    "index_b": 15,
    "index_m": 3
  },
  {
    "key": "key",
    "type": "ab",
    "index_a": 20,
    "index_b": 16
  },
  {
    "key": "card",
    "type": "abm",
    "auto_test": true,
    "index_a": 21,
    "index_b": 17,
    "index_m": 6
  },
  {
    "key": "light",
    "type": ""
  },
  {
    "key": "otg",
    "type": "a",
    "only_manual": true,
    "index_a": 22
  },
  {
    "key": "gyroscope",
    "type": ""
  }
]
